1    1    a              a              identifier     
1    3    mod            mod            mod            
1    7    b              b              identifier     
2    1    a              a              identifier     
2    3    div            div            div            
2    7    b              b              identifier     
